{
    "$schema": "http://json-schema.org/draft-07/schema#",
    "definitions": {
        "GameLobbyData": {
            "additionalProperties": false,
            "properties": {
                "currentPlayers": {
                    "type": "number"
                },
                "gameID": {
                    "type": "string"
                },
                "gameName": {
                    "type": "string"
                },
                "hostName": {
                    "type": "string"
                },
                "localIP": {
                    "type": "string"
                },
                "maxPlayers": {
                    "type": "number"
                },
                "port": {
                    "type": "number"
                }
            },
            "required": [
                "currentPlayers",
                "gameID",
                "gameName",
                "hostName",
                "localIP",
                "maxPlayers",
                "port"
            ],
            "type": "object"
        },
        "Message": {
            "additionalProperties": false,
            "properties": {
                "data": {
                },
                "event": {
                    "type": "string"
                }
            },
            "required": [
                "data",
                "event"
            ],
            "type": "object"
        }
    }
}

